Introduction to UnilSports package • UnilSports
…
Sport Schedule

This dataset contains the sports activities from the Unil Sports
center for a week. It will depend on the day that was computed, so it
may be a different date that appears for you but the structure remains
the same.

To know about what represent each columns please use this command in
the console. ?sport_schedule

Example

# To load the data
UnilSports::sport_schedule
#> # A tibble: 506 × 4
#>   Date       Timetable     Activity                                  Location   
#>   <date>     <chr>         <chr>                                     <chr>      
#> 1 2022-12-14 07:00 – 08:00 Réveil musculaire (Cours hybride)         CSS-Salle …
#> 2 2022-12-14 08:00 – 09:00 Football / Pratique libre                 Rugby-Foot…
#> 3 2022-12-14 08:00 – 09:00 Basketball / Pratique libre à l'extérieur Basket Ent…
#> 4 2022-12-14 08:00 – 09:00 Football / Pratique libre                 Terrain Ce…
#> # … with 502 more rows
MET Values

This dataset contains the metabolic equivalent of task (MET) of each
exercise activity (821 sub-activities in total). These values will be
use on the optimize_schedule function, so it can compute
the calorie burn per activity.

To find out what each column represents, use the
?met_values command in the console.

Example

# To load the data
UnilSports::met_values
#> # A tibble: 821 × 3
#>   Activity  `Specific Motion`                         METs
#>   <chr>     <chr>                                    <dbl>
#> 1 bicycling bicycling, mountain, uphill, vigorous     14  
#> 2 bicycling bicycling, mountain, competitive, racing  16  
#> 3 bicycling bicycling, BMX                             8.5
#> 4 bicycling bicycling, mountain, general               8.5
#> # … with 817 more rows
…
This dataset contains a table with all the activity names on the UNIL
Sport center and the sub-activity/specific motion names in the MET
values table. From the name we can have an idea of the purpose of the
dataset. This table will mapped the sport activities with the MET valus
when using the get_cleanschedule_met function.

To learn the meaning of each column, enter the ?mapping
command in the console.

Example

# To load the data
UnilSports::mapping
#> # A tibble: 171 × 2
#>   Activity                                  `Specific Motion`                   
#>   <chr>                                     <chr>                               
#> 1 Musculation connectée / 1. Introduction   health club exercise classes, gener…
#> 2 Tai ji quan / Tous niveaux                video exercise workouts, TV conditi…
#> 3 Basketball / Pratique libre à l'extérieur basketball, general                 
#> 4 Football / Pratique libre                 football, touch, flag, general      
#> # … with 167 more rows
…
Note: The UNIL’s Sport website do not have all
the activities if we try to get a date period above a week, for that
reason we have consider 7 days. But it is feasible to retrieve more than
on week a head.

Example

# Create Sport Schedule dataset
sport_schedule <- webscrape_sports(days = 7)
head(sport_schedule,5) # Visualize the first 5 rows of the data frame
#> # A tibble: 5 × 4
#>   Date       Timetable     Activity                                  Location   
#>   <date>     <chr>         <chr>                                     <chr>      
#> 1 2022-12-19 08:00 – 09:00 Basketball / Pratique libre à l'extérieur Basket Ent…
#> 2 2022-12-19 08:00 – 09:00 Football / Pratique libre                 Rugby-Foot…
#> 3 2022-12-19 08:00 – 09:00 Football / Pratique libre                 Rugby-Foot…
#> 4 2022-12-19 09:00 – 10:00 Basketball / Pratique libre à l'extérieur Basket Ent…
#> # … with 1 more row

# or without the parameter
sport_schedule <- webscrape_sports()
head(sport_schedule,5) # Visualize the first 5 rows of the data frame
#> # A tibble: 5 × 4
#>   Date       Timetable     Activity                                  Location   
#>   <date>     <chr>         <chr>                                     <chr>      
#> 1 2022-12-19 08:00 – 09:00 Basketball / Pratique libre à l'extérieur Basket Ent…
#> 2 2022-12-19 08:00 – 09:00 Football / Pratique libre                 Rugby-Foot…
#> 3 2022-12-19 08:00 – 09:00 Football / Pratique libre                 Rugby-Foot…
#> 4 2022-12-19 09:00 – 10:00 Basketball / Pratique libre à l'extérieur Basket Ent…
#> # … with 1 more row
Web Scrape MET Values webscrape_MET()

webscrape_MET() support the user to web scrap the MET
values from the Procon.org
website. As we have mentioned before this will allow the
get_cleanschedule_met() function for the mapping of sports
activities and MET values. The return output is a data frame containing
the MET values of more than 800 activities.

Example

# Create MET values dataset
met_values <- webscrape_MET()
head(met_values,10) # Visualize the first 10 rows of the data frame
#> # A tibble: 10 × 3
#>   Activity  `Specific Motion`                         METs
#>   <chr>     <chr>                                    <dbl>
#> 1 bicycling bicycling, mountain, uphill, vigorous     14  
#> 2 bicycling bicycling, mountain, competitive, racing  16  
#> 3 bicycling bicycling, BMX                             8.5
#> 4 bicycling bicycling, mountain, general               8.5
#> # … with 6 more rows
…
